[{
  "_id": {
    "$oid": "602fb7dbe42e030eac6b5c3b"
  },
  "name": {
    "th": "กรุงเทพมหานคร",
    "en": "Bangkok"
  }
},{
  "_id": {
    "$oid": "602fb7dbe42e030eac6b5c3c"
  },
  "name": {
    "th": "สมุทรปราการ",
    "en": "Samut Prakarn"
  }
},{
  "_id": {
    "$oid": "602fb7dbe42e030eac6b5c3d"
  },
  "name": {
    "th": "นนทบุรี",
    "en": "Nonthaburi"
  }
},{
  "_id": {
    "$oid": "602fb7dbe42e030eac6b5c3e"
  },
  "name": {
    "th": "ปทุมธานี",
    "en": "Pathum Thani"
  }
},{
  "_id": {
    "$oid": "602fb7dbe42e030eac6b5c3f"
  },
  "name": {
    "th": "พระนครศรีอยุธยา",
    "en": "Phra Nakhon Si Ayutthaya"
  }
},{
  "_id": {
    "$oid": "602fb7dbe42e030eac6b5c40"
  },
  "name": {
    "th": "อ่างทอง",
    "en": "Ang Thong"
  }
},{
  "_id": {
    "$oid": "602fb7dbe42e030eac6b5c41"
  },
  "name": {
    "th": "ลพบุรี",
    "en": "Lop Buri"
  }
},{
  "_id": {
    "$oid": "602fb7dbe42e030eac6b5c42"
  },
  "name": {
    "th": "สิงห์บุรี",
    "en": "Sing Buri"
  }
},{
  "_id": {
    "$oid": "602fb7dbe42e030eac6b5c43"
  },
  "name": {
    "th": "ชัยนาท",
    "en": "Chai Nat"
  }
},{
  "_id": {
    "$oid": "602fb7dbe42e030eac6b5c44"
  },
  "name": {
    "th": "สระบุรี",
    "en": "Saraburi"
  }
},{
  "_id": {
    "$oid": "602fb7dbe42e030eac6b5c45"
  },
  "name": {
    "th": "ชลบุรี",
    "en": "Chon Buri"
  }
},{
  "_id": {
    "$oid": "602fb7dbe42e030eac6b5c46"
  },
  "name": {
    "th": "ระยอง",
    "en": "Rayong"
  }
},{
  "_id": {
    "$oid": "602fb7dbe42e030eac6b5c47"
  },
  "name": {
    "th": "จันทบุรี",
    "en": "Chanthaburi"
  }
},{
  "_id": {
    "$oid": "602fb7dbe42e030eac6b5c48"
  },
  "name": {
    "th": "ตราด",
    "en": "Trat"
  }
},{
  "_id": {
    "$oid": "602fb7dbe42e030eac6b5c49"
  },
  "name": {
    "th": "ฉะเชิงเทรา",
    "en": "Chachoengsao"
  }
},{
  "_id": {
    "$oid": "602fb7dbe42e030eac6b5c4a"
  },
  "name": {
    "th": "ปราจีนบุรี",
    "en": "Prachin Buri"
  }
},{
  "_id": {
    "$oid": "602fb7dbe42e030eac6b5c4b"
  },
  "name": {
    "th": "นครนายก",
    "en": "Nakhon Nayok"
  }
},{
  "_id": {
    "$oid": "602fb7dbe42e030eac6b5c4c"
  },
  "name": {
    "th": "สระแก้ว",
    "en": "Sa kaeo"
  }
},{
  "_id": {
    "$oid": "602fb7dbe42e030eac6b5c4d"
  },
  "name": {
    "th": "นครราชสีมา",
    "en": "Nakhon Ratchasima"
  }
},{
  "_id": {
    "$oid": "602fb7dbe42e030eac6b5c4e"
  },
  "name": {
    "th": "บุรีรัมย์",
    "en": "Buri Ram"
  }
},{
  "_id": {
    "$oid": "602fb7dbe42e030eac6b5c4f"
  },
  "name": {
    "th": "สุรินทร์",
    "en": "Surin"
  }
},{
  "_id": {
    "$oid": "602fb7dbe42e030eac6b5c50"
  },
  "name": {
    "th": "ศรีสะเกษ",
    "en": "Si Sa Ket"
  }
},{
  "_id": {
    "$oid": "602fb7dbe42e030eac6b5c51"
  },
  "name": {
    "th": "อุบลราชธานี",
    "en": "Ubon Ratchathani"
  }
},{
  "_id": {
    "$oid": "602fb7dbe42e030eac6b5c52"
  },
  "name": {
    "th": "ยโสธร",
    "en": "Yasothon"
  }
},{
  "_id": {
    "$oid": "602fb7dbe42e030eac6b5c53"
  },
  "name": {
    "th": "ชัยภูมิ",
    "en": "Chaiyaphum"
  }
},{
  "_id": {
    "$oid": "602fb7dbe42e030eac6b5c54"
  },
  "name": {
    "th": "อำนาจเจริญ",
    "en": "Amnat Charoen"
  }
},{
  "_id": {
    "$oid": "602fb7dbe42e030eac6b5c55"
  },
  "name": {
    "th": "บึงกาฬ",
    "en": "Bueng Kan"
  }
},{
  "_id": {
    "$oid": "602fb7dbe42e030eac6b5c56"
  },
  "name": {
    "th": "หนองบัวลำภู",
    "en": "Nong Bua Lam Phu"
  }
},{
  "_id": {
    "$oid": "602fb7dbe42e030eac6b5c57"
  },
  "name": {
    "th": "ขอนแก่น",
    "en": "Khon Kaen"
  }
},{
  "_id": {
    "$oid": "602fb7dbe42e030eac6b5c58"
  },
  "name": {
    "th": "อุดรธานี",
    "en": "Udon Thani"
  }
},{
  "_id": {
    "$oid": "602fb7dbe42e030eac6b5c59"
  },
  "name": {
    "th": "เลย",
    "en": "Loei"
  }
},{
  "_id": {
    "$oid": "602fb7dbe42e030eac6b5c5a"
  },
  "name": {
    "th": "หนองคาย",
    "en": "Nong Khai"
  }
},{
  "_id": {
    "$oid": "602fb7dbe42e030eac6b5c5b"
  },
  "name": {
    "th": "มหาสารคาม",
    "en": "Maha Sarakham"
  }
},{
  "_id": {
    "$oid": "602fb7dbe42e030eac6b5c5c"
  },
  "name": {
    "th": "ร้อยเอ็ด",
    "en": "Roi Et"
  }
},{
  "_id": {
    "$oid": "602fb7dbe42e030eac6b5c5d"
  },
  "name": {
    "th": "กาฬสินธุ์",
    "en": "Kalasin"
  }
},{
  "_id": {
    "$oid": "602fb7dbe42e030eac6b5c5e"
  },
  "name": {
    "th": "สกลนคร",
    "en": "Sakon Nakhon"
  }
},{
  "_id": {
    "$oid": "602fb7dbe42e030eac6b5c5f"
  },
  "name": {
    "th": "นครพนม",
    "en": "Nakhon Phanom"
  }
},{
  "_id": {
    "$oid": "602fb7dbe42e030eac6b5c60"
  },
  "name": {
    "th": "มุกดาหาร",
    "en": "Mukdahan"
  }
},{
  "_id": {
    "$oid": "602fb7dbe42e030eac6b5c61"
  },
  "name": {
    "th": "เชียงใหม่",
    "en": "Chiang Mai"
  }
},{
  "_id": {
    "$oid": "602fb7dbe42e030eac6b5c62"
  },
  "name": {
    "th": "ลำพูน",
    "en": "Lamphun"
  }
},{
  "_id": {
    "$oid": "602fb7dbe42e030eac6b5c63"
  },
  "name": {
    "th": "ลำปาง",
    "en": "Lampang"
  }
},{
  "_id": {
    "$oid": "602fb7dbe42e030eac6b5c64"
  },
  "name": {
    "th": "อุตรดิตถ์",
    "en": "Uttaradit"
  }
},{
  "_id": {
    "$oid": "602fb7dbe42e030eac6b5c65"
  },
  "name": {
    "th": "แพร่",
    "en": "Phrae"
  }
},{
  "_id": {
    "$oid": "602fb7dbe42e030eac6b5c66"
  },
  "name": {
    "th": "น่าน",
    "en": "Nan"
  }
},{
  "_id": {
    "$oid": "602fb7dbe42e030eac6b5c67"
  },
  "name": {
    "th": "พะเยา",
    "en": "Phayao"
  }
},{
  "_id": {
    "$oid": "602fb7dbe42e030eac6b5c68"
  },
  "name": {
    "th": "เชียงราย",
    "en": "Chiang Rai"
  }
},{
  "_id": {
    "$oid": "602fb7dbe42e030eac6b5c69"
  },
  "name": {
    "th": "แม่ฮ่องสอน",
    "en": "Mae Hong Son"
  }
},{
  "_id": {
    "$oid": "602fb7dbe42e030eac6b5c6a"
  },
  "name": {
    "th": "นครสวรรค์",
    "en": "Nakhon Sawan"
  }
},{
  "_id": {
    "$oid": "602fb7dbe42e030eac6b5c6b"
  },
  "name": {
    "th": "อุทัยธานี",
    "en": "Uthai Thani"
  }
},{
  "_id": {
    "$oid": "602fb7dbe42e030eac6b5c6c"
  },
  "name": {
    "th": "กำแพงเพชร",
    "en": "Kamphaeng Phet"
  }
},{
  "_id": {
    "$oid": "602fb7dbe42e030eac6b5c6d"
  },
  "name": {
    "th": "ตาก",
    "en": "Tak"
  }
},{
  "_id": {
    "$oid": "602fb7dbe42e030eac6b5c6e"
  },
  "name": {
    "th": "สุโขทัย",
    "en": "Sukhothai"
  }
},{
  "_id": {
    "$oid": "602fb7dbe42e030eac6b5c6f"
  },
  "name": {
    "th": "พิษณุโลก",
    "en": "Phitsanulok"
  }
},{
  "_id": {
    "$oid": "602fb7dbe42e030eac6b5c70"
  },
  "name": {
    "th": "พิจิตร",
    "en": "Phichit"
  }
},{
  "_id": {
    "$oid": "602fb7dbe42e030eac6b5c71"
  },
  "name": {
    "th": "เพชรบูรณ์",
    "en": "Phetchabun"
  }
},{
  "_id": {
    "$oid": "602fb7dbe42e030eac6b5c72"
  },
  "name": {
    "th": "ราชบุรี",
    "en": "Ratchaburi"
  }
},{
  "_id": {
    "$oid": "602fb7dbe42e030eac6b5c73"
  },
  "name": {
    "th": "กาญจนบุรี",
    "en": "Kanchanaburi"
  }
},{
  "_id": {
    "$oid": "602fb7dbe42e030eac6b5c74"
  },
  "name": {
    "th": "สุพรรณบุรี",
    "en": "Suphan Buri"
  }
},{
  "_id": {
    "$oid": "602fb7dbe42e030eac6b5c75"
  },
  "name": {
    "th": "นครปฐม",
    "en": "Nakhon Pathom"
  }
},{
  "_id": {
    "$oid": "602fb7dbe42e030eac6b5c76"
  },
  "name": {
    "th": "สมุทรสาคร",
    "en": "Samut Sakhon"
  }
},{
  "_id": {
    "$oid": "602fb7dbe42e030eac6b5c77"
  },
  "name": {
    "th": "สมุทรสงคราม",
    "en": "Samut Songkhram"
  }
},{
  "_id": {
    "$oid": "602fb7dbe42e030eac6b5c78"
  },
  "name": {
    "th": "เพชรบุรี",
    "en": "Phetchaburi"
  }
},{
  "_id": {
    "$oid": "602fb7dbe42e030eac6b5c79"
  },
  "name": {
    "th": "ประจวบคีรีขันธ์",
    "en": "Prachuap Khiri Khan"
  }
},{
  "_id": {
    "$oid": "602fb7dbe42e030eac6b5c7a"
  },
  "name": {
    "th": "นครศรีธรรมราช",
    "en": "Nakhon Si Thammarat"
  }
},{
  "_id": {
    "$oid": "602fb7dbe42e030eac6b5c7b"
  },
  "name": {
    "th": "กระบี่",
    "en": "Krabi"
  }
},{
  "_id": {
    "$oid": "602fb7dbe42e030eac6b5c7c"
  },
  "name": {
    "th": "พังงา",
    "en": "Phang-nga"
  }
},{
  "_id": {
    "$oid": "602fb7dbe42e030eac6b5c7d"
  },
  "name": {
    "th": "ภูเก็ต",
    "en": "Phuket"
  }
},{
  "_id": {
    "$oid": "602fb7dbe42e030eac6b5c7e"
  },
  "name": {
    "th": "สุราษฎร์ธานี",
    "en": "Surat Thani"
  }
},{
  "_id": {
    "$oid": "602fb7dbe42e030eac6b5c7f"
  },
  "name": {
    "th": "ระนอง",
    "en": "Ranong"
  }
},{
  "_id": {
    "$oid": "602fb7dbe42e030eac6b5c80"
  },
  "name": {
    "th": "ชุมพร",
    "en": "Chumphon"
  }
},{
  "_id": {
    "$oid": "602fb7dbe42e030eac6b5c81"
  },
  "name": {
    "th": "สงขลา",
    "en": "Songkhla"
  }
},{
  "_id": {
    "$oid": "602fb7dbe42e030eac6b5c82"
  },
  "name": {
    "th": "สตูล",
    "en": "Satun"
  }
},{
  "_id": {
    "$oid": "602fb7dbe42e030eac6b5c83"
  },
  "name": {
    "th": "ตรัง",
    "en": "Trang"
  }
},{
  "_id": {
    "$oid": "602fb7dbe42e030eac6b5c84"
  },
  "name": {
    "th": "พัทลุง",
    "en": "Phatthalung"
  }
},{
  "_id": {
    "$oid": "602fb7dbe42e030eac6b5c85"
  },
  "name": {
    "th": "ปัตตานี",
    "en": "Pattani"
  }
},{
  "_id": {
    "$oid": "602fb7dbe42e030eac6b5c86"
  },
  "name": {
    "th": "ยะลา",
    "en": "Yala"
  }
},{
  "_id": {
    "$oid": "602fb7dbe42e030eac6b5c87"
  },
  "name": {
    "th": "นราธิวาส",
    "en": "Narathiwat"
  }
}]